<?xml version="1.0" encoding="UTF-8" standalone="no"?>
<svg xmlns="http://www.w3.org/2000/svg" height="96" width="96" version="1.1" viewBox="0 0 96 96.000001">
 <g transform="translate(67.86 -78.51)">
  <rect style="color:#000000;fill:none" transform="rotate(90)" height="96" width="96" y="-28.14" x="78.51"/>
  <path style="color-rendering:auto;text-decoration-color:#000000;color:#000000;font-variant-numeric:normal;shape-rendering:auto;font-variant-ligatures:none;text-decoration-line:none;stroke-width:.9347;fill:#808080;font-variant-position:normal;mix-blend-mode:normal;font-feature-settings:normal;shape-padding:0;font-variant-alternates:normal;text-indent:0;font-variant-caps:normal;image-rendering:auto;white-space:normal;text-decoration-style:solid;solid-color:#000000;isolation:auto;text-transform:none" d="m-78.83 107c-2.455 0.0284-4.417-0.0292-6.07 0.3961-0.551 0.1416-1.067 0.3359-1.557 0.606-0.49 0.2703-0.9281 0.6342-1.298 1.073-0.1844 0.219-0.3523 0.4559-0.5002 0.7101-0.1485 0.255-0.2761 0.5266-0.3834 0.8123-0.2142 0.5706-0.3605 1.195-0.4528 1.889-0.04611 0.3475-0.07921 0.7118-0.1004 1.097-0.02126 0.3859-0.03103 0.791-0.03103 1.22v23.41c0 0.4277 0.0098 0.8322 0.03103 1.218 0.02118 0.3854 0.0543 0.7496 0.1004 1.097 0.04614 0.3482 0.1059 0.6784 0.1808 0.9926 0.07474 0.3141 0.1649 0.611 0.272 0.8964 0.000199 0.00053-0.000199 0.00093 0 0.002 0.2142 0.5706 0.5139 1.084 0.8835 1.523 0.3697 0.4386 0.8084 0.8032 1.298 1.073 0.2448 0.1351 0.4965 0.2502 0.7558 0.3505 1.815 0.7021 4.007 0.6186 6.872 0.6517h18.24c3.273-0.0379 5.667 0.0764 7.625-1.004 0.9795-0.5402 1.755-1.452 2.183-2.594 0.4284-1.141 0.5824-2.496 0.5823-4.206v-23.42c0.000006-1.71-0.1539-3.065-0.5823-4.206s-1.204-2.055-2.183-2.596c-1.958-1.08-4.352-0.9646-7.625-1.002h-18.24z"/>
  <path style="color-rendering:auto;text-decoration-color:#000000;color:#000000;font-variant-numeric:normal;shape-rendering:auto;font-variant-ligatures:none;text-decoration-line:none;stroke-width:3.859;fill:#808080;font-variant-position:normal;mix-blend-mode:normal;font-feature-settings:normal;shape-padding:0;font-variant-alternates:normal;text-indent:0;font-variant-caps:normal;image-rendering:auto;white-space:normal;text-decoration-style:solid;solid-color:#000000;isolation:auto;text-transform:none" d="m14.68 121.1h-113.9v10.74h113.9z"/>
  <path style="color:#000000;stroke-width:3.859;fill:#808080" d="m-35.57 94.29 0.02041 64.44c9.802-4.48 19.78-9.497 29.94-15.03 10.06-5.6 19.77-11.3 29.11-17.2-9.34-5.8-19.05-11.4-29.11-17-10.17-5.5-20.15-10.61-29.96-15.21z"/>
 </g>
</svg>
